{
  "event_auto_fresh_list": "Events will refresh automatically once in the first page.",
  "event_autoscale": "Auto scales",
  "event_detail": "Event Detail",
  "event_login": "logged in",
  "event_logout": "logged out",
  "event_create": "created",
  "event_add": "added",
  "event_start": "started",
  "event_stop": "stopped",
  "event_cancel": "canceled",
  "event_drain": "drain",
  "event_cordon": "cordon",
  "event_uncordon": "uncordon",
  "event_update": "updated",
  "event_put": "updated",
  "event_destroy": "destroyed",
  "event_remove": "removed",
  "event_retry": "retry updated",
  "event_rollback": "rollback",
  "event_upgrade": "upgraded",
  "event_build": "build",
  "event_trigger": "triggered",
  "event_create_build": "created build",
  "event_destroy_build": "destroy build",
  "event_delete": "deleted",
  "event_permission_grant": "granted",
  "event_permission_revoke": "revoked",
  "event_create_member": "created",
  "event_add_member": "added",
  "event_update_member": "updated",
  "event_remove_member": "removed",
  "event_destroy_member": "destory",
  "event_update_password": "updated",
  "event_of": "'s",
  "event_for": "for",
  "event_to": "to",
  "event_sync": "synchronized",
  "event_not_found": "Cannot find your events",
  "event_not_found_tips": "<li>Try fuzzy searching by using '*'</li><li>If you are searching by action type, try search terms like <strong>create</strong>, <strong>update</strong>, <strong>destroy</strong>, <strong>start</strong>, <strong>stop</strong>, <strong>status_change</strong>. For resource types, try searching with <strong>service</strong>, <strong>application</strong>, <strong>alarm</strong>, <strong>notification</strong>, <strong>job</strong>, <strong>repository</strong>, <strong>cluster</strong></li><li>Searching by content is restricted to event data. You can take a look by expanding the event row:</li>",
  "event_data_example": "Event data example",
  "event_application": "Application",
  "event_result_is_service_ready": "Status check",
  "event_result_start": "start",
  "event_result_create": "create",
  "event_result_update": "update",
  "event_result_retry": "retry",
  "event_result_destroy": "destroy",
  "event_result_upgrade": "upgrade",
  "event_result_build": "build",
  "event_result_stop": "stop",
  "event_registry_gc": "The registry <a ui-sref=\"{{ state}}\">{{ resource_name }}</a> is being cleaned up",
  "event_registry_gc_completed": "The registry <a ui-sref=\"{{ state}}\">{{ resource_name }}</a> has been cleaned up completely",
  "event_ingress": "Ingress",
  "k8s_event_resource_name": "Resource Name",
  "k8s_event_time_range": "Start-stop Time",
  "k8s_event_count": "Count",
  "k8s_event_reason": "Reason",
  "k8s_event_message": "Message",
  "query_condition": "Query Condition",
  "platform_events": "Platform events",
  "k8s_events": "Kubernetes events",
  "frontend": "Frontend",
  "k8s_event_access_rule": "Rule",
  "resource_ratio": "Resource Ratio",
  "mirror": "Federation",
  "event_cronjobexec": "manual executed"
}
