<?xml version="1.0" encoding="UTF-8"?>
<svg width="16px" height="16px" viewBox="0 0 16 16" version="1.1" xmlns="http://www.w3.org/2000/svg" xmlns:xlink="http://www.w3.org/1999/xlink">
    <!-- Generator: Sketch 48.1 (47250) - http://www.bohemiancoding.com/sketch -->
    <title>Artboard</title>
    <desc>Created with Sketch.</desc>
    <defs></defs>
    <g id="Page-1" stroke="none" stroke-width="1" fill="none" fill-rule="evenodd">
        <g id="Artboard" fill="#363C41" fill-rule="nonzero">
            <path d="M3.50940988,10.4370387 C3.22323165,10.3730875 3.00313527,10.1386358 3.00313527,9.84023294 L3.00313529,6.55778554 C3.02514653,6.25936718 3.22326374,6.02491548 3.50940989,5.96096427 L6.65720998,5.30022271 L6.98741069,4.00003089 L3.33331996,4.00003091 C2.03459253,4.00003091 1,5.00180437 1,6.23807588 L1,10.1173445 C1,11.3536006 2.05660377,12.3766963 3.33331996,12.3766963 L6.98741069,12.3766963 L6.65720998,11.0765045 L3.50940988,10.4370387 Z M12.66668,4 L8.99052994,4 L9.32073065,5.30019182 L12.4685949,5.96093338 C12.7547571,6.02490004 12.9747893,6.25935173 12.9747893,6.55773918 L12.9747893,9.84020203 C12.9528422,10.1386049 12.754741,10.3730566 12.4685949,10.4370078 L9.32073065,11.0977649 L8.99052994,12.3979567 L12.66668,12.3979567 C13.9434283,12.3979567 15,11.3961678 15,10.1386049 L15,6.23802951 C14.9779085,5.00177346 13.9434283,4 12.66668,4 Z M6.65719393,8.02847785 L9.34272585,8.02847785 L9.34272585,8.34818752 L6.65719393,8.34818752 L6.65719393,8.02847785 Z" id="Shape"></path>
        </g>
    </g>
</svg>