<?xml version="1.0" encoding="UTF-8" standalone="no"?>
<svg width="1009px" height="1024px" viewBox="0 0 1009 1024" version="1.1" xmlns="http://www.w3.org/2000/svg" xmlns:xlink="http://www.w3.org/1999/xlink">
    <!-- Generator: Sketch 39 (31667) - http://www.bohemiancoding.com/sketch -->
    <title>Shape</title>
    <desc>Created with Sketch.</desc>
    <defs></defs>
    <g id="Page-1" stroke="none" stroke-width="1" fill="none" fill-rule="evenodd">
        <g id="Group" fill="#33B4EF">
            <path d="M465.002876,941.727205 L463.780025,532.014846 L1008.02543,534.460548 L1008.02543,1023.66845 L465.002876,941.727205 L465.002876,941.727205 Z M463.779002,81.942267 L1008.0244,0 L1008.0244,452.518281 L463.779001,452.518281 L463.779002,81.942267 L463.779002,81.942267 L463.779002,81.942267 Z M0.25404,530.790972 L389.174864,532.014846 L389.174864,934.388053 L0.25404,872.01447 L0.25404,530.790972 L0.25404,530.790972 L0.25404,530.790972 Z M0.25404,452.518281 L0.25404,151.655002 L389.174864,89.280396 L389.174864,452.518281 L0.25404,452.518281 L0.25404,452.518281 L0.25404,452.518281 Z" id="Shape"></path>
        </g>
    </g>
</svg>