<?xml version="1.0" encoding="UTF-8"?>
<svg width="34px" height="32px" viewBox="0 0 34 32" version="1.1" xmlns="http://www.w3.org/2000/svg" xmlns:xlink="http://www.w3.org/1999/xlink">
    <!-- Generator: Sketch 48.1 (47250) - http://www.bohemiancoding.com/sketch -->
    <title>Shape</title>
    <desc>Created with Sketch.</desc>
    <defs></defs>
    <g id="集群列表" stroke="none" stroke-width="1" fill="none" fill-rule="evenodd" transform="translate(-441.000000, -188.000000)" opacity="0.276562512">
        <g id="Group-21" transform="translate(184.000000, 122.000000)" fill="#FFFFFF">
            <g id="Group-36" transform="translate(0.000000, 56.000000)">
                <g id="Group-14">
                    <g id="1">
                        <g id="Group-47" transform="translate(258.000000, 10.000000)">
                            <path d="M32,11.3548387 C31.2591969,9.73915206 29.7591398,8.46768774 27.8709677,8.25806452 C28.2982837,6.37271869 27.6400549,4.54792081 25.8064516,3.09677419 C24.4895876,2.15751973 22.3228661,2.04276315 20.6451613,3.09677419 C19.8187185,1.20530488 18.0390445,0 15.483871,0 C14.04005,0 12.3638367,1.04387583 11.3548387,3.09677419 C9.88400372,1.82070803 7.89492703,1.92511966 6.19354839,3.09677419 C4.76703756,4.11319311 4.03561709,5.91152722 4.12903226,7.22580645 C2.49114879,7.94923826 0.940725912,9.16224168 6.28663788e-15,11.3548387 C-0.279217927,12.712478 0.210049757,14.5863542 1.03225806,15.483871 C0.184742806,17.116051 -0.342485303,18.9805446 6.28663788e-15,20.6451613 C0.80550745,22.5531548 2.33111958,23.7957496 4.12903226,23.7419355 C3.83390584,25.8623302 4.52885454,27.6738962 6.19354839,28.9032258 C7.61233279,29.9211522 9.59818408,30.0633349 11.3548387,28.9032258 C12.0621382,30.8868396 13.7170143,31.962472 15.483871,32 C17.5718583,32.0356082 19.2689126,31.0242107 20.6451613,29.9354839 C21.7643764,30.2942915 23.7546936,30.2276509 25.8064516,28.9032258 C26.9260019,28.0999631 27.693646,26.3158231 27.8709677,24.7741935 C29.278804,24.3077034 30.8535414,23.1242913 32,21.6774194 C32.1449402,19.5976318 31.6933848,17.7148542 30.9677419,16.516129 C31.770298,15.1868414 32.3352385,13.3326928 32,11.3548387" id="Shape"></path>
                        </g>
                    </g>
                </g>
            </g>
        </g>
    </g>
</svg>