<?xml version="1.0" encoding="UTF-8"?>
<svg width="48px" height="48px" viewBox="0 0 48 48" version="1.1" xmlns="http://www.w3.org/2000/svg" xmlns:xlink="http://www.w3.org/1999/xlink">
    <!-- Generator: Sketch 48.1 (47250) - http://www.bohemiancoding.com/sketch -->
    <title>Group 7</title>
    <desc>Created with Sketch.</desc>
    <defs>
        <linearGradient x1="64.7654179%" y1="100%" x2="25.900669%" y2="25.6882589%" id="linearGradient-1">
            <stop stop-color="#2DDB76" offset="0%"></stop>
            <stop stop-color="#3BD3B3" offset="100%"></stop>
        </linearGradient>
    </defs>
    <g id="图标" stroke="none" stroke-width="1" fill="none" fill-rule="evenodd" transform="translate(-366.000000, -918.000000)">
        <g id="pv" transform="translate(366.000000, 918.000000)">
            <g id="Group-7">
                <rect id="Rectangle-61" fill="url(#linearGradient-1)" x="0" y="0" width="48" height="48"></rect>
                <path d="M35.1428571,20.4285714 C35.6555085,20.4285714 36.0931902,20.6099312 36.4559152,20.9726563 C36.8186402,21.3353813 37,21.7730629 37,22.2857143 C37,22.7983657 36.8186402,23.2360473 36.4559152,23.5987723 C36.0931902,23.9614973 35.6555085,24.1428571 35.1428571,24.1428571 L35.1428571,29.7142857 C35.1428571,30.2172644 34.9590792,30.6525279 34.5915179,31.0200893 C34.2239565,31.3876506 33.788693,31.5714286 33.2857143,31.5714286 C29.252212,28.215013 25.3251679,26.3772337 21.5044643,26.0580357 C20.9434496,26.2418164 20.5033498,26.5610096 20.1841518,27.015625 C19.8649538,27.4702404 19.7150297,27.9562846 19.734375,28.4737723 C19.7537203,28.99126 19.9471708,29.4386142 20.3147321,29.8158482 C20.1212788,30.1350462 20.0100448,30.4518213 19.9810268,30.766183 C19.9520088,31.0805447 19.9810264,31.3610479 20.0680804,31.6077009 C20.1551344,31.8543539 20.3171491,32.1203483 20.5541295,32.405692 C20.7911098,32.6910357 21.0232504,32.9328487 21.250558,33.1311384 C21.4778657,33.3294281 21.7752958,33.5736593 22.1428571,33.8638393 C21.8623498,34.424854 21.3231067,34.8262637 20.5251116,35.0680804 C19.7271165,35.309897 18.9122065,35.365514 18.0803571,35.234933 C17.2485077,35.104352 16.6101213,34.8359395 16.1651786,34.4296875 C16.0974699,34.2072161 15.9548002,33.7840433 15.7371652,33.1601562 C15.5195302,32.5362692 15.3647698,32.0792425 15.2728795,31.7890625 C15.1809891,31.4988825 15.0697551,31.0684552 14.9391741,30.4977679 C14.8085931,29.9270805 14.7360492,29.4386181 14.7215402,29.0323661 C14.7070312,28.626114 14.7239581,28.1497423 14.7723214,27.6032366 C14.8206848,27.0567309 14.9270825,26.522324 15.0915179,26 L13.3214286,26 C12.6830325,26 12.136535,25.7726957 11.6819196,25.3180804 C11.2273043,24.863465 11,24.3169675 11,23.6785714 L11,20.8928571 C11,20.2544611 11.2273043,19.7079636 11.6819196,19.2533482 C12.136535,18.7987328 12.6830325,18.5714286 13.3214286,18.5714286 L20.2857143,18.5714286 C24.4933246,18.5714286 28.8266146,16.7143043 33.2857143,13 C33.788693,13 34.2239565,13.1837779 34.5915179,13.5513393 C34.9590792,13.9189006 35.1428571,14.3541642 35.1428571,14.8571429 L35.1428571,20.4285714 Z M33.2857143,29.1919643 L33.2857143,15.3504464 C29.4746833,18.271592 25.7604348,19.9304296 22.1428571,20.3270089 L22.1428571,24.2444196 C25.7894528,24.6506717 29.5037013,26.2998367 33.2857143,29.1919643 Z" id="" fill="#FFFFFF" opacity="0.85"></path>
            </g>
        </g>
    </g>
</svg>