<?xml version="1.0" encoding="UTF-8"?>
<svg width="48px" height="48px" viewBox="0 0 48 48" version="1.1" xmlns="http://www.w3.org/2000/svg" xmlns:xlink="http://www.w3.org/1999/xlink">
    <!-- Generator: Sketch 48.1 (47250) - http://www.bohemiancoding.com/sketch -->
    <title>Group 7</title>
    <desc>Created with Sketch.</desc>
    <defs>
        <linearGradient x1="64.7654179%" y1="100%" x2="25.900669%" y2="25.6882589%" id="linearGradient-1">
            <stop stop-color="#2DDB76" offset="0%"></stop>
            <stop stop-color="#3BD3B3" offset="100%"></stop>
        </linearGradient>
    </defs>
    <g id="图标" stroke="none" stroke-width="1" fill="none" fill-rule="evenodd" transform="translate(-87.000000, -918.000000)">
        <g id="pv" transform="translate(87.000000, 918.000000)">
            <g id="Group-7">
                <rect id="Rectangle-61" fill="url(#linearGradient-1)" x="0" y="0" width="48" height="48"></rect>
                <g id="家庭存储" transform="translate(11.000000, 11.000000)" opacity="0.85">
                    <path d="M9.85203591,9.15152112 C9.9456904,7.19727744 11.5443374,5.66133198 13.4847042,5.66133198 C15.4250711,5.66133198 17.0237181,7.19727744 17.1173726,9.15152112 C18.0131815,9.09794561 18.8646428,9.54940384 19.3285932,10.3239452 C19.7925435,11.0984865 19.7925435,12.0684993 19.3285932,12.8430407 C18.8646428,13.617582 18.0131815,14.0690402 17.1173726,14.0154647 L9.85203591,14.0154647 C8.95622697,14.0690402 8.10476563,13.617582 7.6408153,12.8430407 C7.17686496,12.0684993 7.17686496,11.0984865 7.6408153,10.3239452 C8.10476563,9.54940384 8.95622697,9.09794561 9.85203591,9.15152112 Z M22.2885,23.293359 L3.718,23.293359 C2.69668743,23.293359 1.86875,22.4585275 1.86875,21.4287106 C1.86875,20.3988937 2.69668743,19.5640621 3.718,19.5640621 L22.2885,19.5640621 C23.3098126,19.5640621 24.13775,20.3988937 24.13775,21.4287106 C24.13775,22.4585275 23.3098126,23.293359 22.2885,23.293359 Z M20.4425101,21.4363263 C20.4448952,21.9494682 20.8587429,22.3638438 21.3676514,22.3626477 C21.87656,22.3614516 22.2884874,21.9451352 22.2885,21.4319876 C22.2885061,21.1840146 22.19037,20.9462924 22.0158655,20.7715653 C21.8413611,20.5968383 21.6049191,20.4995556 21.359,20.5013019 C20.8501027,20.5049156 20.4401251,20.9231844 20.4425101,21.4363263 Z" id="Shape" fill="#FFFFFF" fill-rule="nonzero"></path>
                    <path d="M25.7985,20.2784617 L25.5654259,2.04488689 C25.3916267,0.901305562 24.4370013,0.0432392505 23.2904259,0 L2.70957407,0 C1.54568542,0.0439048989 0.582342592,0.926711918 0.428074074,2.09076577 L0.2015,20.2784617 C0.0737454622,20.6496722 0.00571893633,21.0391032 0,21.4319876 C0.0017223958,22.4227974 0.393722306,23.3723361 1.0897639,24.0717153 C1.7858055,24.7710944 2.72887244,25.1630243 3.7115,25.1612846 L22.2885,25.1612846 C23.2711276,25.1630243 24.2141945,24.7710944 24.9102361,24.0717153 C25.6062777,23.3723361 25.9982776,22.4227974 26,21.4319876 C25.9942811,21.0391032 25.9262545,20.6496722 25.7985,20.2784617 Z" id="Path" stroke="#FFFFFF"></path>
                </g>
            </g>
        </g>
    </g>
</svg>