{
  "nav_kube_resource_type_manage": "K8s 资源类型管理",
  "kube_resource_type_manage": "K8s 资源类型管理",
  "kube_resource": "K8S 资源",
  "add_api_group": "添加 API 组",
  "add_api_group_success": "添加 API 组 {{name}} 成功",
  "update_api_group": "更新 API 组",
  "update_api_group_success": "更新 API 组 {{name}} 成功",
  "delete_api_group_confirm": "确定要删除 API 组 {{name}} 吗",
  "delete_api_group_success": "删除 API 组 {{name}} 成功",
  "add_resource_type": "添加资源类型",
  "add_resource_type_success": "在API组 {{api_group}} 下添加资源类型 {{name}} 成功",
  "update_resource_type": "更新资源类型",
  "update_resource_type_success": "更新API组 {{api_group}} 下的资源类型 {{name}} 成功",
  "source": "来源",
  "api_group": "API 组",
  "can_not_detele_api_group_content": "无法删除 API 组 {{name}}, 请先移除 API 组下的资源类型",
  "can_not_update_api_group_content": "无法更新 API 组 {{name}}, 请先移除 API 组下的资源类型",
  "resource_type_can_not_update": "该资源类型不能更新",
  "resource_type_can_not_delete": "该资源类型不能删除",
  "resource_in_use_tip": "{{name}} 已被以下角色使用:",
  "resource_type_delete_confirm": "确定要删除API组 {{api_group}} 下的资源类型 {{name}} 吗？",
  "delete_resource_type_success": "删除API组 {{api_group}} 下的资源类型 {{name}} 成功",
  "type_system": "系统",
  "type_custom": "自定义"
}
