{
  "storage_volume_name": "存储卷名称",
  "storage_data_load_error": "数据载入失败， 请尝试刷新",
  "storage_name_hint": "小写字母开头，小写字母/数字/下划线/中横线， 最多36个字符",
  "pv": "持久卷",
  "create_pv": "创建持久卷",
  "update_pv": "更新持久卷",
  "pv_name": "持久卷名称",
  "referenced_volume": "关联存储卷",
  "referenced_pvc": "关联持久卷声明",
  "pv_name_placeholder": "请输入持久卷名称",
  "pv_strategy_retain": "保留",
  "pv_strategy_delete": "删除",
  "pv_strategy_recycle": "回收",
  "pv_create_success": "持久卷创建成功",
  "recycle_strategy": "回收策略",
  "delete_pv_title": "删除持久卷",
  "delete_pv_content": "确定删除持久卷 {{ name }} ?",
  "pv_delete_success": "持久卷删除成功",
  "pv_update_success": "持久卷更新成功",
  "pv_not_exist": "持久卷不存在或已被删除",
  "pvc": "持久卷声明",
  "create_pvc": "创建持久卷声明",
  "update_pvc": "更新持久卷声明",
  "pvc_name": "持久卷声明名称",
  "referenced_services": "关联服务",
  "referenced_pv": "关联持久卷",
  "access_mode": "访问模式",
  "read_write_once": "读写",
  "read_only_many": "只读",
  "read_write_many": "共享",
  "pvc_name_placeholder": "请输入持久卷声明名称",
  "pv_tags": "持久卷标签",
  "select_pv_labels": "选择持久卷标签",
  "delete_pvc_title": "删除持久卷声明",
  "delete_pvc_content": "确定删除持久卷声明 {{ name }} ?",
  "pvc_delete_success": "持久卷声明删除成功",
  "pvc_create_success": "持久卷声明创建成功",
  "pvc_update_success": "持久卷声明更新成功",
  "pvc_not_exist": "持久卷声明不存在或已被删除",
  "storageclass": "存储类",
  "create_storageclass": "创建存储类",
  "set_default_storageclass": "设为默认",
  "cancel_default_storageclass": "取消默认",
  "storageclass_name_hint": "以字母或数字开头结尾，支持字母、数字、中划线和下划线，最多63个字符",
  "yaml_format_hint": "YAML 文件格式错误，请重新编写",
  "cancel_create_storageclass_content": "确定要取消创建存储类吗？",
  "storageclass_type": "类型",
  "storageclass_use_default": "使用默认",
  "storageclass_nonuse": "不使用",
  "storageclass_create_confirm": "确定要创建存储类吗？",
  "storageclass_default": "默认",
  "set_storageclass_default": "设为默认",
  "storageclass_system": "系统",
  "delete_storageclass_title": "删除存储类",
  "delete_storageclass_content": "确定要删除存储类 {{name}} ?",
  "storageclass_delete_success": "存储类删除成功",
  "storageclass_create_success": "存储类创建成功",
  "storageclass_tips": "StorageClass为管理员提供了一种描述其存储的方法。管理员可以根据想要提供的服务质量级别，备份、安全或其他策略制定存储类，应用于不同业务场景。存储类的概念在其他存储系统中有时被称为“配置文件”。",
  "pv_tips": "PersistentVolume（PV）是集群之中的一块网络存储。跟 Node 一样，也是集群的资源。PV 跟 Volume (卷) 类似，不过会有独立于 Pod 的生命周期。",
  "pvc_tips": "PV 是存储资源，而 PersistentVolumeClaim (PVC) 是对 PV 的请求。PVC 跟 Pod 类似：Pod 消费 Node 资源，而 PVC 消费 PV 资源；Pod 能够请求 CPU 和内存资源，而 PVC 请求特定大小和访问模式的数据卷。",
  "userview_pvc_tips": "存储指PersistentVolumeClaim (PVC) 是用户存储的请求，PVC根据请求的大小和访问模式消耗不同属性的PersistentVolumes(PV)。PVC可以根据管理员提供StorageClass来动态创建volume及PV。",
  "storageclass_use_default_tip": "请注意，使用默认时，群集上最多只能有一个默认存储类，否则创建持久卷声明会失败。",
  "storageclass_reserved_name_hint": "{{name}} 为系统预留名称，不允许自定义创建，请使用其他合法名称创建存储类。",
  "node_topo_disk_hint": "要添加的每个磁盘的名称，应该是原始块存储，而不是文件系统",
  "server_address": "服务地址"
}
