{
  "integration_add_integration": "Add Integration",
  "integration_family": "Family",
  "integration_instance": "Integration Instance",
  "integration_family_name_CodeScan": "Code Scan",
  "integration_family_name_ImageScan": "Image Scan",
  "integration_family_name_LogSource": "Log Source",
  "integration_family_name_Features": "Features",
  "integration_type_not_exist": "Integration Type Not Exist",
  "integration_config_not_exist": "Integration Config Not Exist",
  "integration_info": "Integration Information",
  "integration_immediately_enabled": "Immediately Enabled",
  "integration_delete_config_hint": "The resources that use this integration instance cannot use it after the integration instance is deleted. Are you sure to delete integration config {{ name }} ?",
  "status_switch_on": "ON",
  "status_switch_off": "OFF",
  "integration_switch_on_success_title": "Switch ON success",
  "integration_switch_off_success_title": "Switch OFF success"
}
