<?xml version="1.0" encoding="UTF-8" standalone="no"?>
<svg width="13px" height="11px" viewBox="0 0 13 11" version="1.1" xmlns="http://www.w3.org/2000/svg" xmlns:xlink="http://www.w3.org/1999/xlink">
    <!-- Generator: Sketch 39 (31667) - http://www.bohemiancoding.com/sketch -->
    <title>上传</title>
    <desc>Created with Sketch.</desc>
    <defs></defs>
    <g id="Repository" stroke="none" stroke-width="1" fill="none" fill-rule="evenodd">
        <g transform="translate(-307.000000, -267.000000)" id="events" fill="#666666">
            <g>
                <g id="Group-19" transform="translate(181.000000, 157.000000)">
                    <g id="Group-14">
                        <g id="Group-11">
                            <g id="Group-10" transform="translate(9.000000, 16.000000)">
                                <g id="Group-16" transform="translate(0.000000, 80.000000)">
                                    <g id="Group-15" transform="translate(8.000000, 10.000000)">
                                        <g id="Group-5" transform="translate(109.000000, 0.000000)">
                                            <g id="上传" transform="translate(0.000000, 4.000000)">
                                                <g id="Group" transform="translate(0.091734, 0.121324)">
                                                    <path d="M8.58220161,7.54116431 L8.57240548,7.53088039 L6.73596677,5.4840349 C6.6252571,5.40038314 6.53742742,5.36739176 6.42785839,5.36739176 C6.31131129,5.36739176 6.20811645,5.40514549 6.13679258,5.47395804 L4.26680548,7.51417765 C4.21339645,7.60445529 4.17112548,7.69059176 4.17112548,7.80226549 C4.17112548,7.99234549 4.34517452,8.16537765 4.53633323,8.16537765 C4.63375774,8.16537765 4.74782226,8.11250863 4.83524935,8.02720039 L6.06271774,6.69657137 L6.06271774,10.4452333 C6.06271774,10.6726529 6.19919258,10.8084145 6.42785839,10.8084145 C6.61364935,10.8084145 6.80105065,10.6961196 6.80105065,10.4452333 L6.80105065,6.69643333 L8.02838484,8.02726941 C8.12795645,8.12527725 8.20323903,8.16530863 8.28751258,8.16530863 C8.51087774,8.16530863 8.69257581,8.00235333 8.69257581,7.80219647 C8.6926429,7.70191098 8.65540419,7.61411804 8.58220161,7.54116431 L8.58220161,7.54116431 Z M10.826119,3.04074078 L10.7069552,3.00747333 L10.6615306,2.8929698 C9.96654226,1.14152824 8.31260677,0.0098827451 6.44792032,0.0098827451 C4.59276161,0.0098827451 2.88655774,1.16844588 2.20223774,2.89290078 L2.15694742,3.00705922 L2.03818613,3.04046471 C0.857685484,3.37286314 0.00085967742,4.50754549 0.00085967742,5.73864824 C0.00085967742,7.3000098 1.29247258,8.57024667 2.88025065,8.57024667 C3.13045452,8.57024667 3.28531387,8.37775098 3.28531387,8.19926627 C3.28531387,7.97384824 3.12636161,7.82807882 2.88025065,7.82807882 C2.83683903,7.82807882 2.7938971,7.82635333 2.75115645,7.82373059 C1.61567774,7.81841608 0.696653226,6.87015569 0.696653226,5.70082549 C0.696653226,4.55786078 1.57468161,3.62630314 2.67473323,3.57992196 C3.18352806,1.92862784 4.68401323,0.731275686 6.45764935,0.731275686 C8.23349968,0.731275686 9.73559516,1.93159569 10.2425113,3.58606471 C10.4006584,3.60000667 10.5537061,3.6321698 10.6996416,3.68069059 L10.70407,3.68069059 L10.70407,3.68220902 C11.530501,3.95939176 12.1279306,4.75808667 12.1279306,5.70068745 C12.1279306,5.78185451 12.1230997,5.86184824 12.1144442,5.94059961 C12.1116932,5.96841451 12.10807,5.99602235 12.1041784,6.02349216 C12.1041784,6.02369922 12.1041113,6.02383725 12.1041113,6.02404431 C12.076199,6.22226863 12.0197706,6.41152039 11.9388519,6.58807255 C11.6218197,7.29559255 10.9379023,7.7928098 10.1377061,7.82179804 C10.0867797,7.82531804 10.0355177,7.82780275 9.98365194,7.82780275 C9.80275903,7.82780275 9.61045968,7.95783569 9.61045968,8.1989902 C9.61045968,8.38624039 9.79537839,8.56997059 9.98365194,8.56997059 C11.5712287,8.56997059 12.8628416,7.29973373 12.8628416,5.73837216 C12.8629087,4.48456196 12.0253397,3.3752098 10.826119,3.04074078 L10.826119,3.04074078 Z" id="Shape"></path>
                                                </g>
                                            </g>
                                        </g>
                                    </g>
                                </g>
                            </g>
                        </g>
                    </g>
                </g>
            </g>
        </g>
    </g>
</svg>