<?xml version="1.0" encoding="UTF-8"?>
<svg width="24px" height="24px" viewBox="0 0 24 24" version="1.1" xmlns="http://www.w3.org/2000/svg" xmlns:xlink="http://www.w3.org/1999/xlink">
    <!-- Generator: Sketch 48.1 (47250) - http://www.bohemiancoding.com/sketch -->
    <title>Artboard 3</title>
    <desc>Created with Sketch.</desc>
    <defs></defs>
    <g id="jenkins" stroke="none" stroke-width="1" fill="none" fill-rule="evenodd">
        <g id="Artboard-3" fill="#FFFFFF">
            <g id="Group-2" transform="translate(7.000000, 7.000000)">
                <rect id="Rectangle" x="0" y="0" width="4" height="10" rx="0.5"></rect>
                <rect id="Rectangle" x="6" y="0" width="4" height="10" rx="0.5"></rect>
            </g>
        </g>
    </g>
</svg>