{
  "sa_add_secret_error": "Failed to update ServiceAccount",
  "namespace_name_pattern_error": "It must start and end of a-z,0-9,include a-z,0-9 and midline, no more than {{length}} characters",
  "namespace_data_cleaning": "Clean invalid data",
  "master": "admin",
  "user_not_exist": "User does not exist",
  "role_already_exists": "Role already exists",
  "project_overview": "<%= project %> Overview",
  "add_cluster_quota": "Add cluster and quota",
  "add_member": "Add member",
  "quota_setting_way": "configure the quota type",
  "can_used_range": "range",
  "outof_range": "out of range",
  "got_it": "Understood",
  "containe": "containe",
  "forbidden_revoke_request": "Has no permission to revoke this role",
  "quota_range_tip": "You can use {{max}} with a minimum of {{min}}",
  "quota_range_tip_no_max": "You can use with a minimum of {{min}}",
  "quota_range_error_tip": "You can use {{max}} with a minimum of {{min}}. Cannot be set when it can be used as {{max}}, please contact the administrator",
  "subaccount_already_exists": "Account already exists",
  "cluster_quota_update_error": "{{clusterDisplayName}} update quota error.",
  "cluster_quota_update_success": "{{clusterDisplayName}} update quota success.",
  "resource_not_available": "Quota check does not pass",
  "kubernetes_error": "Kubernetes returned an error",
  "resource_quota_create_error": "Failed to create quota",
  "secret_create_error": "Failed to create Secret",
  "pod_quota": "Pod Quota",
  "less_than_quota_default": "No less than value of default limit",
  "greater_than_resource_quota": "No greater than value of resource quota",
  "greater_than_quota_default": "No greater than value of default limit",
  "cluster_quota": "Cluster Quota",
  "default_value": "Default",
  "limit_value": "Limit",
  "quota_range_min_tip": "minimum of {{min}}",
  "create_space": "Create <%= space %>",
  "batch_add": "Add in batches",
  "batch_import": "Batch Import",
  "batch_import_account": "Add in accounts batches",
  "create_space_role_error": "Create <%= space %> role error",
  "has_same_username_role": "Same username &  role",
  "space_name_placeholder": "Begin with lower case letter, lower case letters/numbers/dashes/underlines/point. Max 32 chars.",
  "can_assign": "Can assign",
  "abnormal": "Abnormal",
  "space_create_success": "<%= space %> {{spaceName}} create success",
  "namesapce_quota_default": "Default Limit",
  "namesapce_quota_default_request": "Default Request",
  "to_set_now": "Go to set now",
  "group": "<%= space %>",
  "group_name": "<%= space %> Name",
  "binding": "binding",
  "initialization_settings": "Initialization settings",
  "complete_and_create_group": "Complate and create <%= space %>",
  "binding_group": "Binding <%= space %>",
  "create_group": "Create <%= space %>",
  "complete_and_bind_group": "Complete and bind <%= space %>",
  "select_binding_group": "Select binding <%= space %>",
  "complete_and_init_devops_tools": "Complete and init DevOps Tools",
  "complete_initialization": "Complete initialization",
  "total_num_ge": "Total{{total}}",
  "namespace_set_resourcequota": "Set Resource Quota",
  "namespace_set_limitrange": "Set Limit Range",
  "generic_error_title": "Unsupported step creation failed",
  "set_role": "Set Role",
  "set_role_for_member": "Set a role for {{ num }} member",
  "all_groups": "All groups",
  "total_clusters": "Total Clusters",
  "view_detail": "View Detail",
  "unsupported_unknown_characters": "There are unknown characters that are not supported"
}
