{
  "change_to_admin_view_confirm": "Confirm to switch to admin view?",
  "change_to_user_view_confirm": "Confirm to switch to user view?",
  "zero_state_hint": "No {{ resourceName }}",
  "display_app_advanced": "Advanced Config",
  "display_container_advanced": "Advanced Config",
  "app_affinity_hint": "Deploy instances of this app with nodes already have instances of apps deployed",
  "app_antiaffinity_hint": "Don't deploy instances of this app with nodes already have instances of apps deployed",
  "no_route": "No routes config",
  "add_route": "Add Route",
  "sub_path": "Subpath",
  "select_storage": "Select Storage",
  "storage_name": "Storage Name",
  "select_image_tag": "Select image tag",
  "input_image_tag": "Input image tag",
  "app_address": "Address",
  "no_project": "No <%= project %>",
  "projects_empty_hint": "No <%= project %> avaliable",
  "project_has_no_cluster": "No cluster avaliable",
  "app_create_success": "Request for creating the application {{appName}} has been submitted successfully, start deploying.",
  "app_update_success": "Request for updating the application {{appName}} has been submitted successfully, start updating.",
  "app_delete_success": "Request for deleting the application {{appName}} has been submitted successfully, start deleting.",
  "cluster_app_create_error": "Failed to create application {{appName}} in cluster {{clusterName}}",
  "cluster_app_create_success": "Request for creating the application {{appName}} in cluster {{clusterName}} has been submitted successfully, start deploying.",
  "cluster_app_update_error": "Failed to update application {{appName}} in cluster {{clusterName}}",
  "cluster_app_update_success": "Request for updating the application {{appName}} in cluster {{clusterName}} has been submitted successfully, start updating.",
  "cluster_app_delete_error": "Failed to deleted application {{appName}} in cluster {{clusterName}}",
  "cluster_app_delete_success": "Request for deleting the application {{appName}} in cluster {{clusterName}} has been submitted successfully, start deleting.",
  "cluster_app_component_delete_success": "Application {{appName}} Component {{componentName}} deleted success in cluster {{clusterName}}",
  "cluster_app_component_delete_error": "Failed to deleted application {{appName}} Component {{componentName}} in cluster {{clusterName}}",
  "cluster_configMap_create_error": "Failed to create configMap {{name}} in cluster {{clusterName}}",
  "cluster_configMap_create_success": "ConfigMap {{name}} created success in cluster {{clusterName}}",
  "cluster_configMap_update_error": "Failed to update configMap {{name}} in cluster {{clusterName}}",
  "cluster_configMap_update_success": "ConfigMap {{name}} updated success in cluster {{clusterName}}",
  "cluster_configMap_delete_error": "Failed to deleted configMap {{name}} in cluster {{clusterName}}",
  "cluster_configMap_delete_success": "ConfigMap {{name}} deleted success in cluster {{clusterName}}",
  "cluster_secret_create_error": "Failed to create secret {{name}} in cluster {{clusterName}}",
  "cluster_secret_create_success": "Secret {{name}} created success in cluster {{clusterName}}",
  "cluster_secret_update_error": "Failed to update secret {{name}} in cluster {{clusterName}}",
  "cluster_secret_update_success": "Secret {{name}} updated success in cluster {{clusterName}}",
  "cluster_secret_delete_error": "Failed to deleted secret {{name}} in cluster {{clusterName}}",
  "cluster_secret_delete_success": "Secret {{name}} deleted success in cluster {{clusterName}}",
  "cluster_pvc_create_error": "Failed to create volume {{name}} in cluster {{clusterName}}",
  "cluster_pvc_create_success": "Volume {{name}} created success in cluster {{clusterName}}",
  "cluster_pvc_update_error": "Failed to update volume {{name}} in cluster {{clusterName}}",
  "cluster_pvc_update_success": "Volume {{name}} updated success in cluster {{clusterName}}",
  "cluster_pvc_delete_error": "Failed to deleted volume {{name}} in cluster {{clusterName}}",
  "cluster_pvc_delete_success": "Volume {{name}} deleted success in cluster {{clusterName}}",
  "app_name_exists": "Application name already exists",
  "select_image": "Select Image",
  "image_address": "Image Address",
  "please_input_image_address_and_version": "Please input image address and tag",
  "affinity_app_self": "Self",
  "app_owner": "Owner",
  "poll_logs": "Auto Refresh",
  "write_in": "Write In",
  "delete_app": "Delete Application",
  "app_service_delete_selected_cluster_app_confirm": "Confirm to delete selected cluster's application {{app_name}} ?",
  "app_delete_selected_cluster_component_confirm": "Confirm to delete selected cluster's component {{component_name}} ?",
  "kube_service": "Service",
  "kube_ingress": "Ingress",
  "create_kube_service": "Create Service",
  "create_kube_ingress": "Create Ingress",
  "create_kube_service_info": "Create Kubernetes Service",
  "update_kube_service": "Update Service",
  "update_kube_ingress": "Update Service",
  "kube_ingress_delete": "Delete",
  "ip_address": "Ip Address",
  "kube_service_name": "Service Name",
  "kube_ingress_name": "Ingress Name",
  "kube_ingress_controller": "Controller",
  "kube_ingress_host": "Host",
  "kube_ingress_tls": "HTTPS Certificate",
  "please_select_host": "Please select host",
  "target_app": "Target Application",
  "please_select_app": "Please select application",
  "target_port": "Target Port",
  "target_port_hint": "The port number that containers  expose，will map to the Service Port",
  "port_name": "Port Name",
  "delete_kube_service_confirm": "Confirm to delete service {{ name }}?",
  "update_kube_service_confirm": "Confirm to update service {{ name }}?",
  "create_kube_service_confirm": "Confirm to create new {{ name }} service?",
  "delete_kube_service_success": "Delete service {{ name }} success",
  "delete_kube_service_error": "Delete service {{ name }} error",
  "update_kube_service_success": "Update service {{ name }} success",
  "update_kube_service_error": "Update service {{ name }} error",
  "create_kube_service_success": "Create service {{ name }} success",
  "create_kube_service_error": "Create service {{ name }} error",
  "delete_kube_ingress_confirm": "Confirm to delete ingress {{ name }}?",
  "delete_kube_ingress_success": "Delete ingress {{ name }} success",
  "update_kube_ingress_success": "Update ingress {{ name }} success",
  "update_kube_ingress_error": "Update ingress {{ name }} error",
  "create_kube_ingress_success": "Create ingress {{ name }} success",
  "create_kube_ingress_error": "Create ingress {{ name }} error",
  "ingress_path_pattern": "Must / start",
  "ingress_domain_pattern": "No *",
  "sample_error": "Failed to convert sample, please check the format",
  "view_yaml": "View YAML",
  "route": "Route",
  "create_route": "Create Route",
  "update_route": "Update Route",
  "route_name": "Route Name",
  "delete_route_confirm": "Confirm to delete route {{ name }}?",
  "update_route_confirm": "Confirm to update route {{ name }}?",
  "create_route_confirm": "Confirm to create route {{ name }}?",
  "delete_route_success": "Delete route {{ name }} success",
  "delete_route_error": "Delete route {{ name }} error",
  "update_route_success": "Update route {{ name }} success",
  "update_route_error": "Update route {{ name }} error",
  "create_route_success": "Create route {{ name }} success",
  "create_route_error": "Create route {{ name }} error",
  "update_password_error": "Update Password Error",
  "private_registry": "Private Registry",
  "public_registry": "Public Registry",
  "kube_service_tips": "The internal route, Kubernetes Service, defines a logical set and access policy for a group of Pods",
  "kube_ingress_tips": "The external route, Kubernetes Ingress, provides the service with URLs for external access to the cluster, load balancing, SSL termination, and HTTP routing. The cluster administrator needs to deploy the Ingress controller, which monitors changes in the ingress and service, and configures load balancing to provide access to the portal according to the rules.",
  "create_configmap": "Create Configmap",
  "form": "Form",
  "log_platform": "Log Platform",
  "mirror_cluster_select_tip": "The cluster is a federate member and the current resources are deployed simultaneously in the selected cluster. If you choose a single-cluster deployment, access may be interrupted when the cluster is upgraded or fails.",
  "update_cluster": "Update Cluster",
  "bad_request": "Bad Request",
  "kube_service_port": "Service Port",
  "search_audit_placeholder": "Search by user name/target",
  "audit_operator_name": "Operator",
  "audit_resource_name": "Resource Name",
  "audit_resource_type": "Resource Type",
  "audit_log_level": "Level",
  "audit_no_data": "No relevant content has been found",
  "advanced_search": "Advanced Search",
  "operation_time": "Operation Time",
  "show_audit_detail": "Audit Detail",
  "request_url": "Request URL",
  "resource_id": "Resource ID",
  "request_id": "Request ID",
  "event_id": "Event ID",
  "source_ip": "Source IP",
  "audit_login": "Login",
  "status_change": "Status Change",
  "cloud_account": "Cloud Account",
  "cloud_instance": "Cloud Instance",
  "delete_service": "Delete service",
  "delete_route": "Delete route",
  "cluster_service_create_error": "Failed to create service {{name}} in cluster {{clusterName}}",
  "cluster_service_create_success": "Service {{name}} created success in cluster {{clusterName}}",
  "cluster_service_update_error": "Failed to update service {{name}} in cluster {{clusterName}}",
  "cluster_service_update_success": "Service {{name}} updated success in cluster {{clusterName}}",
  "cluster_service_delete_error": "Failed to delete service {{name}} in cluster {{clusterName}}",
  "cluster_service_delete_success": "Service {{name}} deleted success in cluster {{clusterName}}",
  "cluster_route_create_error": "Failed to create route {{name}} in cluster {{clusterName}}",
  "cluster_route_create_success": "Route {{name}} created success in cluster {{clusterName}}",
  "cluster_route_update_error": "Failed to update route {{name}} in cluster {{clusterName}}",
  "cluster_route_update_success": "Route {{name}} updated success in cluster {{clusterName}}",
  "cluster_route_delete_error": "Failed to delete route {{name}} in cluster {{clusterName}}",
  "cluster_route_delete_success": "Route {{name}} deleted success in cluster {{clusterName}}",
  "delete_selected_cluster_service_confirm": "Confirm to delete select cluster's service {{name}}?",
  "delete_selected_cluster_route_confirm": "Confirm to delete select cluster's route {{name}}?",
  "integer_or_percentage": "Number or percentage",
  "no_container_name_hint": "Unnamed",
  "save_and_add": "Save and add",
  "url_exist": "URL exist",
  "preview": "Preview",
  "please_select_component": "Please select component",
  "env": "Environment variable",
  "reference_value": "Reference value",
  "paginator_page_items": "perPage",
  "paginator_total_records": "Total {{length}}",
  "comfigmap_from_file_error_content": "Failed to import {{fileNames}}, the Unicode character of the file content is 0~127 and the file size does not exceed 1M",
  "storage_volume_delete_success": "Volume has been successfully deleted",
  "storage_volume_create_success": "Volume has been successfully created",
  "connect_pv": "Connect pv",
  "search_by_keyword": "search by keyword",
  "duplicate_service_port": "Duplicate service port: {{portList}}",
  "more_config": "More Config",
  "limitrange_index": "Index",
  "domain_type": "Domain Type",
  "traffic_distribution": "Traffic Distribution",
  "exec_user_input_placeholder": "Please make sure the user already exists in the container. If you don't fill it, use root by default",
  "last_schedule_time": "Last schedule time",
  "create_cron_job": "Create Cron Job",
  "update_cron_job": "Update Cron Job",
  "job_type": "Job Type",
  "single_job": "Single job",
  "single_job_tip": "The task executes a single job at a time. After the job succeeds 1 time, the task is successful",
  "parallel_job": "Parallel job",
  "parallel_job_tip": "Tasks can execute multiple jobs in parallel, any one job succeeds, and the task is successful",
  "fixed_number_job": "Fixed number job",
  "fixed_number_job_tip": "Tasks can execute multiple jobs in parallel, and the task is successful after reaching the number of planned successful jobs",
  "planned_successful_jobs": "Planned successful jobs",
  "max_number_parallel_jobs": "Max number of parallel jobs",
  "job_failure_retries": "Job failure retries",
  "job_exec_timeout": "Job exec timeout time",
  "job_record_cleanup_time": "Job record cleanup time",
  "cron_config": "Cron Config",
  "cron_trig": "Cron trig",
  "manual_trig": "Manual trig",
  "trigger_rule": "Trigger rule",
  "cron_concurrency_policy": "Cron concurrency policy",
  "cron_concurrency_policy_allow": "Allow new jobs to be triggered, the current job continues to execute",
  "cron_concurrency_policy_forbid": "Forbid new jobs to be triggered, the current job continues to execute",
  "cron_concurrency_policy_replace": "Allow new jobs to be triggered while terminating jobs in progress",
  "number_of_history_jobs_keep_up": "Number of history jobs keep up",
  "successful_history_job": "Successful history jobs",
  "failed_history_jobs": "Failed history jobs",
  "cron": "Cron",
  "next_trig_time": "Next trig time",
  "execute_now": "Execute Now",
  "execute_succeeded": "Execute Succeeded",
  "execute_failed": "Execute Failed",
  "executing": "Executing",
  "job_status": "Job Status",
  "references_cron_job": "References cron job",
  "job_assignment": "Job assignment",
  "view_logs": "View logs",
  "delete_cron_job_confirm": "Confirm to delete cron job {{ name }}?",
  "delete_cron_job_pod_confirm": "Confirm to delete pod {{ name }}?",
  "delete_cron_job_tip": "Delete the cron job record will delete all containers and job record created by this cron job at the same time",
  "delete_cron_job_success": "Delete cron job {{ name }} success",
  "delete_job_record_confirm": "Confirm to delete job record {{ name }}?",
  "delete_job_record_tip": "Delete the job record will delete all containers at the same time",
  "delete_job_record_success": "Delete job record {{ name }} success",
  "update_cron_job_success": "Update cron job {{ name }} success",
  "create_cron_job_success": "Create cron job {{ name }} success",
  "schedule_example": "Example: Input '0 18 * * *', It means '18 o'clock every day'",
  "reference_document": "Reference document",
  "go_to_input_rule_detail": "For detailed input rules, please go to",
  "cron_job_execute_now_confirm": "Confirm to execute cron job {{ name }} now?"
}
