<svg xmlns="http://www.w3.org/2000/svg" width="241" height="197" viewBox="0 0 241 197">
  <defs>
    <linearGradient id="unerected-a" x1="50.004%" x2="50.004%" y1="100%" y2="0%">
      <stop offset="0%" stop-color="gray" stop-opacity=".25"/>
      <stop offset="54%" stop-color="gray" stop-opacity=".12"/>
      <stop offset="100%" stop-color="gray" stop-opacity=".1"/>
    </linearGradient>
    <linearGradient id="unerected-b" x1="50%" x2="50%" y1="100%" y2="0%">
      <stop offset="0%" stop-color="gray" stop-opacity=".25"/>
      <stop offset="54%" stop-color="gray" stop-opacity=".12"/>
      <stop offset="100%" stop-color="gray" stop-opacity=".1"/>
    </linearGradient>
    <linearGradient id="unerected-c" x1="50%" x2="50%" y1="100.551%" y2="-.551%">
      <stop offset="0%" stop-color="gray" stop-opacity=".25"/>
      <stop offset="54%" stop-color="gray" stop-opacity=".12"/>
      <stop offset="100%" stop-color="gray" stop-opacity=".1"/>
    </linearGradient>
    <linearGradient id="unerected-d" x1="50%" x2="50%" y1="100%" y2=".061%">
      <stop offset="0%" stop-color="gray" stop-opacity=".25"/>
      <stop offset="54%" stop-color="gray" stop-opacity=".12"/>
      <stop offset="100%" stop-color="gray" stop-opacity=".1"/>
    </linearGradient>
    <linearGradient id="unerected-e" x1="50.004%" x2="50.004%" y1="101.146%" y2="-1.146%">
      <stop offset="0%" stop-color="gray" stop-opacity=".25"/>
      <stop offset="54%" stop-color="gray" stop-opacity=".12"/>
      <stop offset="100%" stop-color="gray" stop-opacity=".1"/>
    </linearGradient>
    <linearGradient id="unerected-f" x1="50%" x2="50%" y1="101.345%" y2="-1.345%">
      <stop offset="0%" stop-color="gray" stop-opacity=".25"/>
      <stop offset="54%" stop-color="gray" stop-opacity=".12"/>
      <stop offset="100%" stop-color="gray" stop-opacity=".1"/>
    </linearGradient>
    <linearGradient id="unerected-g" x1="49.999%" x2="49.999%" y1="101.457%" y2="-1.457%">
      <stop offset="0%" stop-color="gray" stop-opacity=".25"/>
      <stop offset="54%" stop-color="gray" stop-opacity=".12"/>
      <stop offset="100%" stop-color="gray" stop-opacity=".1"/>
    </linearGradient>
    <linearGradient id="unerected-h" x1="-5.126%" x2="105.092%" y1="50%" y2="50%">
      <stop offset="0%" stop-color="gray" stop-opacity=".25"/>
      <stop offset="54%" stop-color="gray" stop-opacity=".12"/>
      <stop offset="100%" stop-color="gray" stop-opacity=".1"/>
    </linearGradient>
    <linearGradient id="unerected-i" x1="49.999%" x2="49.999%" y1="100%" y2="0%">
      <stop offset="0%" stop-color="gray" stop-opacity=".25"/>
      <stop offset="54%" stop-color="gray" stop-opacity=".12"/>
      <stop offset="100%" stop-color="gray" stop-opacity=".1"/>
    </linearGradient>
    <linearGradient id="unerected-j" x1="49.996%" x2="49.996%" y1="100%" y2="0%">
      <stop offset="0%" stop-color="gray" stop-opacity=".25"/>
      <stop offset="54%" stop-color="gray" stop-opacity=".12"/>
      <stop offset="100%" stop-color="gray" stop-opacity=".1"/>
    </linearGradient>
  </defs>
  <g fill="none" transform="translate(1 -22)">
    <rect width="240" height="240"/>
    <rect width="137.852" height="101.9" x="102.092" y="105.096" fill="#009CE3" opacity=".2"/>
    <polygon fill="url(#unerected-a)" points="52.163 58.839 52.163 38.93 45.831 38.93 43.888 27.644 46.531 27.644 46.531 22 32.142 22 32.142 27.644 34.784 27.644 32.841 38.93 26.51 38.93 26.51 59.311 26.665 59.311 26.665 67.307 66.554 67.307 66.554 58.839"/>
    <polygon fill="#009CE3" points="46.638 43.198 32.996 43.198 35.963 25.957 43.674 25.957"/>
    <rect width="47.38" height="24.33" x="22.844" y="194.41" fill="url(#unerected-b)"/>
    <rect width="42.709" height="21.401" x="25.382" y="194.41" fill="#009CE3"/>
    <rect width="29.894" height="128.259" x="31.868" y="66.092" stroke="url(#unerected-c)" stroke-width="1.41"/>
    <rect width="26.989" height="128.259" x="33.278" y="66.092" stroke="#009CE3" stroke-width="1.41"/>
    <polyline stroke="#009CE3" stroke-linejoin="round" stroke-width="1.41" points="60.268 108.988 33.278 108.988 60.121 87.29"/>
    <polyline stroke="#009CE3" stroke-linejoin="round" stroke-width="1.41" points="33.278 130.602 60.268 130.602 33.428 109.053"/>
    <polyline stroke="#009CE3" stroke-linejoin="round" stroke-width="1.41" points="60.268 152.232 33.278 152.232 60.121 130.534"/>
    <polyline stroke="#009CE3" stroke-linejoin="round" stroke-width="1.41" points="33.146 173.563 60.135 173.563 32.996 152.014"/>
    <polyline stroke="#009CE3" stroke-linecap="round" stroke-linejoin="round" stroke-width="1.41" points="33.428 66.092 60.268 87.344 33.278 87.344"/>
    <path stroke="#009CE3" stroke-width="1.41" d="M33.2784959,194.3001 L59.9717979,173.494978"/>
    <rect width="37.816" height="8.024" x="27.638" y="58.178" fill="#009CE3"/>
    <rect width="24.322" height="19.321" x="27.638" y="39.241" fill="#009CE3"/>
    <rect width="8.306" height="7.727" x="43.713" y="39.241" fill="#64FFDA"/>
    <rect width="27.286" height="12.187" y="53.09" stroke="#009CE3" stroke-width="1.41"/>
    <rect width="109.441" height="12.187" x="65.711" y="53.09" stroke="#009CE3" stroke-width="1.41"/>
    <polyline stroke="#009CE3" stroke-linejoin="round" stroke-width="1.41" points="13.537 53.09 13.537 65.275 27.178 53.09"/>
    <polyline stroke="#009CE3" stroke-linejoin="round" stroke-width="1.41" points="120.533 65.275 120.533 53.09 109.706 65.275"/>
    <polyline stroke="#009CE3" stroke-linejoin="round" stroke-width="1.41" points="109.74 53.373 109.74 65.264 97.579 53.523"/>
    <polyline stroke="#009CE3" stroke-linejoin="round" stroke-width="1.41" points="97.199 65.575 97.199 53.09 84.888 65.275"/>
    <polyline stroke="#009CE3" stroke-linejoin="round" stroke-width="1.41" points="72.761 65.99 72.761 53.803 85.069 65.247 85.069 53.656"/>
    <polyline stroke="#009CE3" stroke-linejoin="round" stroke-width="1.41" points="134.941 53.237 134.941 65.128 120.705 53.09"/>
    <polyline stroke="#009CE3" stroke-linejoin="round" stroke-width="1.41" points="149.192 65.56 149.192 53.373 134.806 65.261"/>
    <polyline stroke="#009CE3" stroke-linejoin="round" stroke-width="1.41" points="163.708 53.523 163.708 65.114 149.471 53.373"/>
    <path fill="url(#unerected-d)" d="M155.816686,70.7271162 C160.100588,70.7271162 163.572268,68.6525395 163.572268,66.0918221 L148.061105,66.0918221 C148.061105,68.6525395 151.532785,70.7271162 155.816686,70.7271162 Z"/>
    <path fill="#64FFDA" d="M156.011281,69.6587374 C159.779083,69.6587374 162.833373,68.0618221 162.833373,66.0918221 L149.189189,66.0918221 C149.189189,68.0618221 152.243478,69.6587374 156.011281,69.6587374 Z"/>
    <rect width="13.644" height="5.35" x="32.996" y="23.131" fill="#009CE3"/>
    <path stroke="#009CE3" stroke-linejoin="round" stroke-width="1.41" d="M0,53.0903874 L13.6441833,65.2749928"/>
    <path stroke="url(#unerected-e)" stroke-linejoin="round" stroke-width=".846" d="M33.9581669,25.9569584 L0,54.3255237"/>
    <path stroke="#009CE3" stroke-linejoin="round" stroke-width=".846" d="M33.9581669,25.9569584 L0,53.1553945"/>
    <path stroke="url(#unerected-f)" stroke-linejoin="round" stroke-width=".846" d="M45.4054054,25.9569584 L103.535605,54.3255237"/>
    <path stroke="#009CE3" stroke-width=".846" d="M45.4054054,25.9569584 L103.535605,53.1553945"/>
    <path stroke="#009CE3" stroke-linejoin="round" stroke-width="1.41" d="M175.140776,52.8077475 L163.572268,65.2891248"/>
    <path stroke="url(#unerected-g)" stroke-linejoin="round" stroke-width=".846" d="M44.559342,25.6743185 L175.058989,54.1898565"/>
    <path stroke="#009CE3" stroke-linejoin="round" stroke-width=".846" d="M44.559342,25.6743185 L175.058989,52.7229555"/>
    <path stroke="url(#unerected-h)" stroke-linecap="round" stroke-linejoin="round" stroke-width=".846" d="M160.035723,89.078924 C160.035723,91.3782431 158.175837,93.2422095 155.881551,93.2422095 C153.587266,93.2422095 151.72738,91.3782431 151.72738,89.078924 C151.72738,86.7796049 153.587266,84.9156385 155.881551,84.9156385 L155.881551,66.6571019"/>
    <path stroke="#64FFDA" stroke-linecap="round" stroke-linejoin="round" stroke-width=".846" d="M159.719859,88.5871306 C159.719859,90.7209861 157.993814,92.4508178 155.86463,92.4508178 C153.735446,92.4508178 152.009401,90.7209861 152.009401,88.5871306 C152.009401,86.453275 153.735446,84.7234433 155.86463,84.7234433 L155.86463,67.7876614"/>
    <rect width="42.709" height="21.401" x="25.382" y="194.41" fill="#009CE3"/>
    <g transform="translate(88.837 102.835)">
      <polygon fill="url(#unerected-i)" points="0 0 0 4.949 0 98.08 140.974 98.08 140.974 4.949 140.974 0"/>
      <rect width="137.388" height="90.234" x="2.091" y="6.2" fill="#FFF"/>
      <rect width="137.388" height="6.639" x="2.091" y="1.908" fill="#F5F5F5"/>
      <ellipse cx="7.319" cy="5.128" fill="#FF5252" rx="1.604" ry="1.609"/>
      <ellipse cx="11.732" cy="5.128" fill="#FF0" rx="1.604" ry="1.609"/>
      <ellipse cx="16.142" cy="5.128" fill="#69F0AE" rx="1.604" ry="1.609"/>
      <rect width="25.267" height="2.716" x="57.903" y="30.326" fill="#009CE3" opacity=".5"/>
      <rect width="27.673" height="2.716" x="39.656" y="41.996" fill="#E0E0E0"/>
      <rect width="27.673" height="2.716" x="73.746" y="41.996" fill="#E0E0E0" transform="rotate(-180 87.582 43.354)"/>
      <rect width="61.763" height="2.716" x="39.554" y="47.83" fill="#E0E0E0"/>
      <rect width="61.763" height="2.716" x="39.554" y="53.664" fill="#E0E0E0"/>
      <rect width="25.668" height="5.03" x="57.603" y="66.139" fill="url(#unerected-j)"/>
      <rect width="25.267" height="4.115" x="57.803" y="66.595" fill="#009CE3"/>
    </g>
    <polyline stroke="#64FFDA" stroke-linecap="round" stroke-linejoin="round" stroke-width=".846" points="145.805 106.97 155.887 91.812 165.972 106.97"/>
    <rect width="7.71" height="2.08" x="143.831" y="104.729" fill="#F5F5F5"/>
    <rect width="7.71" height="2.08" x="161.034" y="104.729" fill="#F5F5F5"/>
    <path fill="#64FFDA" d="M165.984959 105.944046C164.648179 105.944046 164.648179 108.024275 165.984959 108.024275 167.321739 108.024275 167.324559 105.944046 165.984959 105.944046zM145.961457 105.944046C144.624677 105.944046 144.624677 108.024275 145.961457 108.024275 147.298237 108.024275 147.301058 105.944046 145.961457 105.944046z"/>
  </g>
</svg>
